{
  "query": "WITH tbl_services AS (SELECT DISTINCT\tproviders#>>'{reference, id}' AS clinic_id, services#>>'{reference, id}' AS service_id FROM pricelist, jsonb_array_elements(resource->'provider') AS providers, jsonb_array_elements(providers->'service') AS services WHERE \tservices->>'active' = 'true' AND (services#>>'{reference, id}' = {{params.service-id}} OR quote_nullable({{params.service-id}}) = 'NULL')), tbl_clinics AS (SELECT id AS clinic_id, resource->>'name' AS clinic_name FROM organization) SELECT DISTINCT clinic_id, clinic_name FROM tbl_clinics JOIN tbl_services USING (clinic_id) ORDER BY clinic_name ASC",
  "params": {
    "service-id": {
      "type": "string",
      "isRequired": false
    }
  },
  "id": "order-clinics",
  "resourceType": "AidboxQuery"
}