{
    "resourceType": "AidboxQuery",
    "id": "order-services",
    "query": "WITH tbl_services AS (SELECT DISTINCT services#>>'{reference, id}' AS service_id FROM pricelist, jsonb_array_elements(resource->'provider') AS providers, jsonb_array_elements(providers->'service') AS services WHERE \tservices->>'active' = 'true' AND (providers#>>'{reference, id}' = {{params.clinic-id}} OR quote_nullable({{params.clinic-id}}) = 'NULL')), tbl_service_names AS (SELECT id AS service_id, resource->>'name' AS service_name FROM healthcareservice) SELECT DISTINCT service_id, service_name FROM tbl_service_names JOIN tbl_services USING (service_id) ORDER BY service_name ASC",
    "params": {
        "clinic-id": {
            "type": "string",
            "isRequired": false
        }
    }
}