{
    "query": "WITH tbl_params AS (SELECT {{params.my-latitude}} AS param_my_latitude, {{params.my-longitude}} AS param_my_longitude, {{params.specialty-code}} AS param_specialty_code, {{params.clinic-id}} AS param_clinic_id, {{params.physician-id}} AS param_physician_id), tbl_clinics AS (WITH tbl_organizations AS (SELECT id AS clinic_id, resource->>'name' AS clinic_name from organization), tbl_locations AS (SELECT resource#>>'{managingOrganization, id}' AS clinic_id, resource#>>'{position, latitude}' AS latitude, resource#>>'{position, longitude}' AS longitude, resource#>>'{address, text}' AS address from location) SELECT clinic_id, clinic_name, address, latitude, longitude FROM tbl_organizations join tbl_locations USING (clinic_id) ), tbl_pricelist AS (WITH tbl_pricelist_initial_appointments AS (SELECT providers#>>'{reference, id}' AS practitioner_role_id, jsonb_build_object('initial', jsonb_build_object('service_id', services#>'{reference, id}', 'price', services#>'{price, low}')) AS initial FROM pricelist, jsonb_array_elements(resource->'provider') AS providers, jsonb_array_elements(providers->'service') AS services WHERE id = 'mig-physicians-pricelist' AND strpos(services#>>'{reference, id}', 'service-initial-appointment') <> 0), tbl_pricelist_repeated_appointments AS (SELECT providers#>>'{reference, id}' AS practitioner_role_id, jsonb_build_object('repeated', jsonb_build_object('service_id', services#>'{reference, id}', 'price', services#>'{price, low}')) AS repeated FROM pricelist, jsonb_array_elements(resource->'provider') AS providers, jsonb_array_elements(providers->'service') AS services WHERE id = 'mig-physicians-pricelist' AND strpos(services#>>'{reference, id}', 'service-repeated-appointment') <> 0) SELECT practitioner_role_id, initial || repeated AS appointment_price FROM tbl_pricelist_initial_appointments JOIN tbl_pricelist_repeated_appointments USING (practitioner_role_id)), tbl_practitioner_roles AS (SELECT id AS practitioner_role_id, resource#>>'{code, 0, text}' AS position, resource#>>'{organization, id}' AS clinic_id, array_agg(specialties->>'code') AS specialty_codes, jsonb_agg(jsonb_build_object('code', specialties->'code', 'title', specialties->'display')) AS specialty, resource#>>'{practitioner, id}' AS practitioner_id FROM practitionerrole, jsonb_array_elements(resource->'specialty') AS specialty_codings, jsonb_array_elements(specialty_codings->'coding') AS specialties GROUP BY practitioner_role_id, position, clinic_id, practitioner_id ), tbl_practitioners AS (SELECT id AS practitioner_id, resource#>>'{name, 0, text}' AS practitioner_name, resource#>>'{photo, 0, url}' AS photo FROM practitioner), tbl_practitioner_experience AS (SELECT id AS practitioner_id, extensions#>>'{valuePeriod, start}' AS experience_start FROM practitioner, jsonb_array_elements(resource->'extension') AS extensions WHERE extensions->>'url' = 'http://mmdx.ru/fhir/StructureDefinition/practitioner-experience' ), tbl_practitioner_qualification AS (SELECT id AS practitioner_id, jsonb_object_agg(CASE WHEN qualifications#>>'{code,coding,0,system}' = 'urn:oid:1.2.643.5.1.13.13.11.1494:1.2' then 'category' WHEN qualifications#>>'{code,coding,0,system}' = 'urn:oid:1.2.643.5.1.13.13.11.1067:3.1' then 'academic_degree' WHEN qualifications#>>'{code,coding,0,system}' = 'http://miramedix.ru/fhir/CodeSystem/academic-rank-or-title' then 'academic_rank' ELSE null END, qualifications#>>'{code, text}') AS qualification FROM practitioner, jsonb_array_elements(resource->'qualification') AS qualifications GROUP BY practitioner.id ) SELECT DISTINCT practitioner_role_id AS physician_id, practitioner_name AS physician_name, photo, experience_start, qualification, position, specialty, appointment_price, CASE WHEN quote_nullable(param_my_latitude) <> 'NULL' AND quote_nullable(param_my_longitude) <> 'NULL' THEN 6371*acos(sind(CAST(latitude AS float))*sind(CAST(param_my_latitude AS float)) + cosd(CAST(latitude AS float))*cosd(CAST(param_my_latitude AS float))*cosd(CAST(longitude AS float) - CAST(param_my_longitude AS float))) ELSE null END AS distance_km FROM tbl_practitioner_roles LEFT OUTER JOIN tbl_practitioners USING (practitioner_id) LEFT OUTER JOIN tbl_practitioner_qualification USING (practitioner_id) LEFT OUTER JOIN tbl_practitioner_experience USING (practitioner_id) LEFT OUTER JOIN tbl_clinics USING (clinic_id) LEFT OUTER JOIN tbl_pricelist USING (practitioner_role_id) , tbl_params WHERE (array_position(specialty_codes, param_specialty_code) IS NOT NULL OR quote_nullable(param_specialty_code) = 'NULL') AND (param_clinic_id = clinic_id OR quote_nullable(param_clinic_id) = 'NULL') AND (param_physician_id = practitioner_role_id OR quote_nullable(param_physician_id) = 'NULL') ORDER BY distance_km ASC LIMIT {{params.limit}} OFFSET {{params.offset}}",
    "params": {
        "limit": {
            "type": "string",
            "isRequired": false
        },
        "offset": {
            "type": "string",
            "isRequired": false
        },
        "my-latitude": {
            "type": "string",
            "isRequired": false
        },
        "my-longitude": {
            "type": "string",
            "isRequired": false
        },
        "clinic-id": {
            "type": "string",
            "isRequired": false
        },
        "physician-id": {
            "type": "string",
            "isRequired": false
        },
        "specialty-code": {
            "type": "string",
            "isRequired": false
        }
    },
    "id": "physicians",
    "resourceType": "AidboxQuery"
}