{
    "query": "SELECT DISTINCT jsonb_build_object('code', topics#>>'{coding, 0, code}', 'text', topics->>'text') AS topic FROM library, jsonb_array_elements(resource->'topic') AS topics WHERE topics#>>'{coding, 0, system}' = 'http://miramedix.ru/fhir/CodeSystem/library-topic'",
    "id": "topics-of-library",
    "resourceType": "AidboxQuery"
}