{
    "resourceType": "QuestionnaireResponse",
    "questionnaire": "service-order-questionnaire-mig",
    "status": "completed",
    "source": {
        "id": "609fdc92-33db-4488-b060-aefb8d21e12e",
        "resourceType": "Patient"
    },
    "subject": {
        "id": "609fdc92-33db-4488-b060-aefb8d21e12e",
        "resourceType": "Patient"
    },
    "item": [
        {
            "linkId": "1.1",
            "answer": [
                {
                    "value": {
                        "string": "Амарант"
                    }
                }
            ]
        },
        {
            "linkId": "1.2",
            "answer": [
                {
                    "value": {
                        "string": "Наталья"
                    }
                }
            ]
        },
        {
            "linkId": "1.3",
            "answer": [
                {
                    "value": {
                        "string": "Сергеевна"
                    }
                }
            ]
        },
        {
            "linkId": "1.4",
            "answer": [
                {
                    "value": {
                        "string": "salekseev@miramedix.ru"
                    }
                }
            ]
        },
        {
            "linkId": "1.5",
            "answer": [
                {
                    "value": {
                        "string": "+7(999)913-50-23"
                    }
                }
            ]
        },
        {
            "linkId": "1.6",
            "answer": [
                {
                    "value": {
                        "string": "Женский"
                    }
                }
            ]
        },
        {
            "linkId": "1.7",
            "answer": [
                {
                    "value": {
                        "boolean": false
                    }
                }
            ]
        },
        {
            "linkId": "1.8",
            "answer": [
                {
                    "value": {
                        "boolean": false
                    }
                }
            ]
        },
        {
            "linkId": "1.9",
            "answer": [
                {
                    "value": {
                        "string": "C50 Рак молочной железы"
                    }
                }
            ]
        },
        {
            "linkId": "2.1",
            "answer": [
                {
                    "value": {
                        "string": "ПЭТ/КТ"
                    }
                }
            ]
        },
        {
            "linkId": "2.2",
            "answer": [
                {
                    "value": {
                        "boolean": true
                    }
                }
            ]
        },
        {
            "linkId": "2.2.1",
            "answer": [
                {
                    "value": {
                        "dateTime": "2021-06-06"
                    }
                }
            ]
        },
        {
            "linkId": "2.3",
            "answer": [
                {
                    "value": {
                        "boolean": true
                    }
                }
            ]
        },
        {
            "linkId": "2.3.1",
            "answer": [
                {
                    "value": {
                        "dateTime": "2021-06-06"
                    }
                }
            ]
        },
        {
            "linkId": "2.3.2",
            "answer": [
                {
                    "value": {
                        "string": "Голова"
                    }
                }
            ]
        },
        {
            "linkId": "2.4",
            "answer": [
                {
                    "value": {
                        "boolean": true
                    }
                }
            ]
        },
        {
            "linkId": "2.4.1",
            "answer": [
                {
                    "value": {
                        "dateTime": "2021-06-06"
                    }
                }
            ]
        },
        {
            "linkId": "2.4.2",
            "answer": [
                {
                    "value": {
                        "string": "Голова"
                    }
                }
            ]
        },
        {
            "linkId": "2.5",
            "answer": [
                {
                    "value": {
                        "boolean": true
                    }
                }
            ]
        },
        {
            "linkId": "2.5.1",
            "answer": [
                {
                    "value": {
                        "string": "Кардиомагнил, бисопролол, милдронат"
                    }
                }
            ]
        },
        {
            "linkId": "2.5.2",
            "answer": [
                {
                    "value": {
                        "Quantity": {
                            "value": 110,
                            "unit": "ммоль/л"
                        }
                    }
                }
            ]
        },
        {
            "linkId": "2.6",
            "answer": [
                {
                    "value": {
                        "boolean": true
                    }
                }
            ]
        },
        {
            "linkId": "2.6.1",
            "answer": [
                {
                    "value": {
                        "string": "Аневризма в зоне бифуркации средней мозговой артерии"
                    }
                }
            ]
        },
        {
            "linkId": "2.7",
            "answer": [
                {
                    "value": {
                        "string": "\"ПЭТ-Технолоджи Диагностика\" Ростов-на-Дону"
                    }
                }
            ]
        },
        {
            "linkId": "2.8",
            "answer": [
                {
                    "value": {
                        "boolean": true
                    }
                }
            ]
        },
        {
            "linkId": "2.8",
            "answer": [
                {
                    "value": {
                        "Attachment": {
                            "url": "http://файловое_хранилище/файл"
                        }
                    }
                }
            ]
        },
        {
            "linkId": "2.9",
            "answer": [
                {
                    "value": {
                        "string": "ОМС"
                    }
                }
            ]
        },
        {
            "linkId": "2.10",
            "answer": [
                {
                    "value": {
                        "string": "комментарий\nкомментарий\nкомментарий\nкомментарий\nкомментарий\n"
                    }
                }
            ]
        }
    ]
}