{
    "resourceType": "Bundle",
    "type": "transaction",
    "entry": [
        {
            "request": {
                "method": "POST",
                "url": "HealthcareService"
            },
            "resource": {
                "resourceType": "HealthcareService",
                "id": "service-blood-biochemistry-lab-test",
                "name": "Биохимический анализ крови",
                "active": true,
                "comment": "Метод лабораторной диагностики, который позволяет оценить работу внутренних органов (печень, почки, поджелудочная железа, желчный пузырь и др.), получить информацию о метаболизме (обмен липидов, белков, углеводов), выяснить потребность в микроэлементах.",
                "category": [
                    {
                        "coding": [
                            {
                                "code": "external",
                                "system": "http://miramedix.ru/fhir/CodeSystem/healthcareservice-category",
                                "display": "Внешняя"
                            }
                        ]
                    }
                ]
            }
        },
        {
            "request": {
                "method": "POST",
                "url": "HealthcareService"
            },
            "resource": {
                "resourceType": "HealthcareService",
                "id": "service-brachytherapy",
                "name": "Брахитерапия",
                "active": true,
                "comment": "При лечении различных видов опухолей используются разные виды лучевой терапии. Помимо типа применяемой ионизирующей радиации они отличаются прежде всего способом подведения источника излучения:  * Дистанционный – источник находится на расстоянии от облучаемой мишени (к примеру линейный ускоритель, близкофокусная рентгенотерапия)  * Контактный (брахитерапия), источником излучения которого служит радионуклид:  - Поверхностный (аппликационный) – источник прикладывается к поверхности патологического очага  - Внутриполостной – источник подводят напрямую к опухоли в полости или просвете органа  - Внутритканевой – источник вводят в ткани самой опухоли  - Радионуклидный (системная терапия) – источником служит препарат, обладающий радиоактивными свойствами, который после введения в организм пациента избирательно накапливается преимущественно в опухолевых тканях",
                "category": [
                    {
                        "coding": [
                            {
                                "code": "external",
                                "system": "http://miramedix.ru/fhir/CodeSystem/healthcareservice-category",
                                "display": "Внешняя"
                            }
                        ]
                    }
                ],
                "extraDetails": "Брахитерапия – вид радиотерапии, когда источник излучения вводится внутрь поражённого органа"
            }
        },
        {
            "request": {
                "method": "POST",
                "url": "HealthcareService"
            },
            "resource": {
                "resourceType": "HealthcareService",
                "id": "service-gamma-knife",
                "name": "Гамма-нож",
                "active": true,
                "comment": "Гамма-нож позволяет за один сеанс подводить к облучаемой зоне дозу облучения в десятки Грэй (1 Гр = 100 рад). При этом, максимум этой дозы расположен внутри мишени, а на границе облучаемого очага со здоровыми тканями происходит резкое падение (градиент) дозы, вследствие чего на прилежащие ткани приходится мизерная, безопасная доза радиации",
                "category": [
                    {
                        "coding": [
                            {
                                "code": "external",
                                "system": "http://miramedix.ru/fhir/CodeSystem/healthcareservice-category",
                                "display": "Внешняя"
                            }
                        ]
                    }
                ],
                "extraDetails": "Гамма-нож – это первый в мире аппарат, предназначенный для проведения стереотаксической радиохирургии – высоко прицельного дистанционного облучения патологических мишеней, расположенных внутри черепа"
            }
        },
        {
            "request": {
                "method": "POST",
                "url": "HealthcareService"
            },
            "resource": {
                "resourceType": "HealthcareService",
                "id": "service-diagnostics",
                "name": "Диагностика",
                "active": true,
                "category": [
                    {
                        "coding": [
                            {
                                "code": "external",
                                "system": "http://miramedix.ru/fhir/CodeSystem/healthcareservice-category",
                                "display": "Внешняя"
                            }
                        ]
                    }
                ],
                "extraDetails": "Отделение лучевой диагностики Клиники Лядова занимается проведением широкого спектра диагностических мероприятий, направленных на раннее выявление основной причины заболеваний различных органов и систем. В нашей работе мы используем только самое лучшее, ведь здоровье наших пациентов стоит на первом месте"
            }
        },
        {
            "request": {
                "method": "POST",
                "url": "HealthcareService"
            },
            "resource": {
                "resourceType": "HealthcareService",
                "id": "service-cyberknife",
                "name": "Кибернож",
                "active": true,
                "comment": "Радиохирургическая операция с помощью КиберНожа способна полностью избавить пациента от злокачественного новообразования. При этом не производится никаких разрезов и не страдают здоровые ткани.  Курс лечения включает в себя от 1 до 5 сеансов стереотаксического облучения. Подготовка занимает обычно несколько дней. Продолжительность сеанса — от часа до полутора. По своей эффективности КиберНож многократно превосходит стандартную лучевую терапию",
                "category": [
                    {
                        "coding": [
                            {
                                "code": "external",
                                "system": "http://miramedix.ru/fhir/CodeSystem/healthcareservice-category",
                                "display": "Внешняя"
                            }
                        ]
                    }
                ],
                "extraDetails": "Система КиберНож — неинвазивная и безболезненная альтернатива хирургической операции в лечении многих онкологических заболеваний. Губительное для злокачественных клеток излучение с высокой точностью направляется непосредственно на опухоль, не повреждая здоровые ткани"
            }
        },
        {
            "request": {
                "method": "POST",
                "url": "HealthcareService"
            },
            "resource": {
                "resourceType": "HealthcareService",
                "id": "service-ct",
                "name": "Компьютерная томография (КТ)",
                "active": true,
                "comment": "Компьютерная томография — это метод послойной диагностики организма, основанный на рентгеновском излучении. Современные компьютерные томографы — это мультиспиральные КТ. Время одного сканирования на КТ занимает несколько минут. Если исследование проводится с внутривенным введением контрастного препарата, то томографию могут повторять несколько раз.  Во время исследования КТ пациент подвергается лучевой нагрузке. Это является причиной того, что необходимость каждого обследования должна быть строго обоснована. Тем не менее, доза облучения, которую пациент получает за исследование, четко контролируется с помощью оборудования томографа и является довольно малой. Ожидать какого-либо вреда от нее не стоит",
                "category": [
                    {
                        "coding": [
                            {
                                "code": "external",
                                "system": "http://miramedix.ru/fhir/CodeSystem/healthcareservice-category",
                                "display": "Внешняя"
                            }
                        ]
                    }
                ],
                "extraDetails": "Компьютерная томография (КТ) – один из наиболее информативных и современных методов лучевой диагностики широкого списка заболеваний. КТ позволяет получать серию поперечных снимков зоны интереса"
            }
        },
        {
            "request": {
                "method": "POST",
                "url": "HealthcareService"
            },
            "resource": {
                "resourceType": "HealthcareService",
                "id": "service-consultation",
                "name": "Консультация",
                "active": true,
                "category": [
                    {
                        "coding": [
                            {
                                "code": "external",
                                "system": "http://miramedix.ru/fhir/CodeSystem/healthcareservice-category",
                                "display": "Внешняя"
                            }
                        ]
                    }
                ],
                "extraDetails": "Консультация специалиста"
            }
        },
        {
            "request": {
                "method": "POST",
                "url": "HealthcareService"
            },
            "resource": {
                "resourceType": "HealthcareService",
                "id": "service-radiotherapy",
                "name": "Лучевая терапия",
                "active": true,
                "comment": "Основным принципом действия лучевой терапии является губительное воздействие излучения на структуру ДНК быстро делящихся опухолевых клеток. В конечном итоге под воздействием облучения опухолевые клетки перестают делиться и гибнут, а сама опухоль постепенно разрушается",
                "category": [
                    {
                        "coding": [
                            {
                                "code": "external",
                                "system": "http://miramedix.ru/fhir/CodeSystem/healthcareservice-category",
                                "display": "Внешняя"
                            }
                        ]
                    }
                ],
                "extraDetails": "Лучевая терапия или «радиотерапия» наравне с лекарственным (химиотерапия) и хирургическим является одним из главных методов лечения пациентов с онкологическими заболеваниями и заключается в воздействии на опухоль ионизирующим излучением – радиацией"
            }
        },
        {
            "request": {
                "method": "POST",
                "url": "HealthcareService"
            },
            "resource": {
                "resourceType": "HealthcareService",
                "id": "service-breast-center",
                "name": "Маммологический центр",
                "active": true,
                "category": [
                    {
                        "coding": [
                            {
                                "code": "external",
                                "system": "http://miramedix.ru/fhir/CodeSystem/healthcareservice-category",
                                "display": "Внешняя"
                            }
                        ]
                    }
                ]
            }
        },
        {
            "request": {
                "method": "POST",
                "url": "HealthcareService"
            },
            "resource": {
                "resourceType": "HealthcareService",
                "id": "service-mri",
                "name": "Магнитно-резонансная томография (МРТ)",
                "active": true,
                "comment": "МРТ-обследование максимально информативно для врача по причине высокого тканевого контраста, что обусловлено рядом физико-химических свойств тканей. Процедура делает наглядными такие изменения, которые не удается обнаружить с помощью других методов. Возможность управлять контрастом, получать серию тонких срезов позволяет детализировать мягкотканные элементы, увидеть даже незначительные патологические изменения. И самое главное, установить границы новообразований при любой их ориентации в пространстве.  МРТ-обследование даст картину не только состояния органов и тканей тела, но и позволит уточнить динамику основных процессов в них – скорость кровотока и тока спинномозговой жидкости, активацию тех или иных участков в коре головного мозга.",
                "category": [
                    {
                        "coding": [
                            {
                                "code": "external",
                                "system": "http://miramedix.ru/fhir/CodeSystem/healthcareservice-category",
                                "display": "Внешняя"
                            }
                        ]
                    }
                ],
                "extraDetails": "Магнитно-резонансная томография (МРТ) — это современное неинвазивное диагностическое обследование, основанное на таком физическом явлении как ядерно-магнитный резонанс. Так называется способность ядер клеток нашего тела реагировать на внешнее магнитное поле. «Ответ» на такое поле от разных органов и тканей в организме человека – тоже разный. Компьютер фиксирует его и выдает точные и подробные изображения, фактически визуализируя внутренние органы и происходящие в них процессы."
            }
        },
        {
            "request": {
                "method": "POST",
                "url": "HealthcareService"
            },
            "resource": {
                "resourceType": "HealthcareService",
                "id": "service-oncology",
                "name": "Онкология",
                "active": true,
                "comment": "Мы лечим:  * Билиарный рак  * Герминогенные опухоли  * Забрюшинные опухоли  * Мезотелиома плевры  * Опухоли головы и шеи  * Опухоли костей  * Опухоли надпочечников  * Рак поджелудочной железы  * Рак желудка  * Рак кожи  * Рак легкого  * Рак молочной железы  * Рак мочевого пузыря  * Рак печени  * Рак пищевода  * Рак почки  * Рак предстательной железы  * Рак тела матки  * Рак толстой кишки  * Рак шейки матки  * Рак щитовидной железы  * Рак яичников",
                "category": [
                    {
                        "coding": [
                            {
                                "code": "external",
                                "system": "http://miramedix.ru/fhir/CodeSystem/healthcareservice-category",
                                "display": "Внешняя"
                            }
                        ]
                    }
                ],
                "extraDetails": "В онкологии дорога каждая минута — мы открываем доступ к лечению по современным стандартам без долгого ожидания"
            }
        },
        {
            "request": {
                "method": "POST",
                "url": "HealthcareService"
            },
            "resource": {
                "resourceType": "HealthcareService",
                "id": "service-pet-ct",
                "name": "Позитронная эмиссионная томография (ПЭТ-КТ)",
                "active": true,
                "comment": "Процедура обладает рядом преимуществ:  * возможность выявления онкологических опухолей на бессимптомной стадии  * безопасность методики, отсутствие болезненных ощущений  * амбулаторное проведение без хирургического вмешательства  * получение полной информации о распространенности злокачественного процесса в организме.  ПЭТ/КТ исследование показано пациентам с выявленной традиционными методами визуальной диагностики новообразованием, и подтвержденным гистологическим исследованием злокачественностью его клеток",
                "category": [
                    {
                        "coding": [
                            {
                                "code": "external",
                                "system": "http://miramedix.ru/fhir/CodeSystem/healthcareservice-category",
                                "display": "Внешняя"
                            }
                        ]
                    }
                ],
                "extraDetails": "ПЭТ/КТ (PET/CT) — высокоинформативный и современный метод диагностической визуализации онкологических заболеваний, который сочетает возможности позитронно-эмиссионной томографии (ПЭТ) и компьютерной томографии (КТ), что позволяет при часто встречающихся клеточных формах опухолей за одно исследование получить полную картину о распространенности злокачественного процесса во всём организме и косвенно оценить степень агрессивности опухолевых очагов.  Методика безопасная и безболезненна. Лучевая нагрузка на организм, получаемая при проведении ПЭТ/КТ исследования, не превышает допустимых норм радиационной безопасности пациента."
            }
        },
        {
            "request": {
                "method": "POST",
                "url": "HealthcareService"
            },
            "resource": {
                "resourceType": "HealthcareService",
                "id": "service-initial-appointment-dermatovenerologist",
                "name": "Прием дерматовенеролога (первичный)",
                "active": true,
                "specialty": [
                    {
                        "coding": [
                            {
                                "code": "11",
                                "system": "urn:oid:1.2.643.5.1.13.2.1.1.208:1.0",
                                "display": "Дерматовенерология"
                            }
                        ]
                    }
                ],
                "category": [
                    {
                        "coding": [
                            {
                                "code": "external",
                                "system": "http://miramedix.ru/fhir/CodeSystem/healthcareservice-category",
                                "display": "Внешняя"
                            }
                        ]
                    }
                ],
                "extraDetails": "Первичный консультативный приём врача-специалиста включает в себя оформление медицинской карты, сбор анамнеза, определение проблемы и (или) наличия заболевания, установление диагноза, определение способов и методов лечения, курса процедур, составление плана лечения, выдачу рекомендаций"
            }
        },
        {
            "request": {
                "method": "POST",
                "url": "HealthcareService"
            },
            "resource": {
                "resourceType": "HealthcareService",
                "id": "service-repeated-appointment-dermatovenerologist",
                "name": "Прием дерматовенеролога (повторный)",
                "active": true,
                "specialty": [
                    {
                        "coding": [
                            {
                                "code": "11",
                                "system": "urn:oid:1.2.643.5.1.13.2.1.1.208:1.0",
                                "display": "Дерматовенерология"
                            }
                        ]
                    }
                ],
                "category": [
                    {
                        "coding": [
                            {
                                "code": "external",
                                "system": "http://miramedix.ru/fhir/CodeSystem/healthcareservice-category",
                                "display": "Внешняя"
                            }
                        ]
                    }
                ],
                "extraDetails": "Повторный приём — это повторное обращение к одному специалисту в течение 3-х месяцев с момента первичного обращения по одному и тому же случаю заболевания. Повторный приём врача включает в себя обсуждение и анализ изменения состояния, определение тактики дальнейшего лечения."
            }
        },
        {
            "request": {
                "method": "POST",
                "url": "HealthcareService"
            },
            "resource": {
                "resourceType": "HealthcareService",
                "id": "service-initial-appointment-cardiologist",
                "name": "Прием кардиолога (первичный)",
                "active": true,
                "specialty": [
                    {
                        "coding": [
                            {
                                "code": "15",
                                "system": "urn:oid:1.2.643.5.1.13.2.1.1.208:1.0",
                                "display": "Кардиология"
                            }
                        ]
                    }
                ],
                "category": [
                    {
                        "coding": [
                            {
                                "code": "external",
                                "system": "http://miramedix.ru/fhir/CodeSystem/healthcareservice-category",
                                "display": "Внешняя"
                            }
                        ]
                    }
                ]
            }
        },
        {
            "request": {
                "method": "POST",
                "url": "HealthcareService"
            },
            "resource": {
                "resourceType": "HealthcareService",
                "id": "service-repeated-appointment-cardiologist",
                "name": "Прием кардиолога (повторный)",
                "active": true,
                "specialty": [
                    {
                        "coding": [
                            {
                                "code": "15",
                                "system": "urn:oid:1.2.643.5.1.13.2.1.1.208:1.0",
                                "display": "Кардиология"
                            }
                        ]
                    }
                ],
                "category": [
                    {
                        "coding": [
                            {
                                "code": "external",
                                "system": "http://miramedix.ru/fhir/CodeSystem/healthcareservice-category",
                                "display": "Внешняя"
                            }
                        ]
                    }
                ],
                "extraDetails": "Повторный приём — это повторное обращение к одному специалисту в течение 3-х месяцев с момента первичного обращения по одному и тому же случаю заболевания. Повторный приём врача включает в себя обсуждение и анализ изменения состояния, определение тактики дальнейшего лечения."
            }
        },
        {
            "request": {
                "method": "POST",
                "url": "HealthcareService"
            },
            "resource": {
                "resourceType": "HealthcareService",
                "id": "service-initial-appointment-neurologist",
                "name": "Прием невролога (первичный)",
                "active": true,
                "specialty": [
                    {
                        "coding": [
                            {
                                "code": "26",
                                "system": "urn:oid:1.2.643.5.1.13.2.1.1.208:1.0",
                                "display": "Неврология"
                            }
                        ]
                    }
                ],
                "category": [
                    {
                        "coding": [
                            {
                                "code": "external",
                                "system": "http://miramedix.ru/fhir/CodeSystem/healthcareservice-category",
                                "display": "Внешняя"
                            }
                        ]
                    }
                ],
                "extraDetails": "Первичный консультативный приём врача-специалиста включает в себя оформление медицинской карты, сбор анамнеза, определение проблемы и (или) наличия заболевания, установление диагноза, определение способов и методов лечения, курса процедур, составление плана лечения, выдачу рекомендаций"
            }
        },
        {
            "request": {
                "method": "POST",
                "url": "HealthcareService"
            },
            "resource": {
                "resourceType": "HealthcareService",
                "id": "service-repeated-appointment-neurologist",
                "name": "Прием невролога (повторный)",
                "active": true,
                "specialty": [
                    {
                        "coding": [
                            {
                                "code": "26",
                                "system": "urn:oid:1.2.643.5.1.13.2.1.1.208:1.0",
                                "display": "Неврология"
                            }
                        ]
                    }
                ],
                "category": [
                    {
                        "coding": [
                            {
                                "code": "external",
                                "system": "http://miramedix.ru/fhir/CodeSystem/healthcareservice-category",
                                "display": "Внешняя"
                            }
                        ]
                    }
                ],
                "extraDetails": "Повторный приём — это повторное обращение к одному специалисту в течение 3-х месяцев с момента первичного обращения по одному и тому же случаю заболевания. Повторный приём врача включает в себя обсуждение и анализ изменения состояния, определение тактики дальнейшего лечения."
            }
        },
        {
            "request": {
                "method": "POST",
                "url": "HealthcareService"
            },
            "resource": {
                "resourceType": "HealthcareService",
                "id": "service-initial-appointment-neurosurgeon",
                "name": "Прием нейрохирурга (первичный)",
                "active": true,
                "specialty": [
                    {
                        "coding": [
                            {
                                "code": "27",
                                "system": "urn:oid:1.2.643.5.1.13.2.1.1.208:1.0",
                                "display": "Нейрохирургия"
                            }
                        ]
                    }
                ],
                "category": [
                    {
                        "coding": [
                            {
                                "code": "external",
                                "system": "http://miramedix.ru/fhir/CodeSystem/healthcareservice-category",
                                "display": "Внешняя"
                            }
                        ]
                    }
                ],
                "extraDetails": "Первичный консультативный приём врача-специалиста включает в себя оформление медицинской карты, сбор анамнеза, определение проблемы и (или) наличия заболевания, установление диагноза, определение способов и методов лечения, курса процедур, составление плана лечения, выдачу рекомендаций"
            }
        },
        {
            "request": {
                "method": "POST",
                "url": "HealthcareService"
            },
            "resource": {
                "resourceType": "HealthcareService",
                "id": "service-repeated-appointment-neurosurgeon",
                "name": "Прием нейрохирурга (повторный)",
                "active": true,
                "specialty": [
                    {
                        "coding": [
                            {
                                "code": "27",
                                "system": "urn:oid:1.2.643.5.1.13.2.1.1.208:1.0",
                                "display": "Нейрохирургия"
                            }
                        ]
                    }
                ],
                "category": [
                    {
                        "coding": [
                            {
                                "code": "external",
                                "system": "http://miramedix.ru/fhir/CodeSystem/healthcareservice-category",
                                "display": "Внешняя"
                            }
                        ]
                    }
                ],
                "extraDetails": "Повторный приём — это повторное обращение к одному специалисту в течение 3-х месяцев с момента первичного обращения по одному и тому же случаю заболевания. Повторный приём врача включает в себя обсуждение и анализ изменения состояния, определение тактики дальнейшего лечения."
            }
        },
        {
            "request": {
                "method": "POST",
                "url": "HealthcareService"
            },
            "resource": {
                "resourceType": "HealthcareService",
                "id": "service-initial-appointment-oncologist",
                "name": "Прием онколога (первичный)",
                "active": true,
                "specialty": [
                    {
                        "coding": [
                            {
                                "code": "30",
                                "system": "urn:oid:1.2.643.5.1.13.2.1.1.208:1.0",
                                "display": "Онкология"
                            }
                        ]
                    }
                ],
                "category": [
                    {
                        "coding": [
                            {
                                "code": "external",
                                "system": "http://miramedix.ru/fhir/CodeSystem/healthcareservice-category",
                                "display": "Внешняя"
                            }
                        ]
                    }
                ],
                "extraDetails": "Первичный консультативный приём врача-специалиста включает в себя оформление медицинской карты, сбор анамнеза, определение проблемы и (или) наличия заболевания, установление диагноза, определение способов и методов лечения, курса процедур, составление плана лечения, выдачу рекомендаций"
            }
        },
        {
            "request": {
                "method": "POST",
                "url": "HealthcareService"
            },
            "resource": {
                "resourceType": "HealthcareService",
                "id": "service-repeated-appointment-oncologist",
                "name": "Прием онколога (повторный)",
                "active": true,
                "specialty": [
                    {
                        "coding": [
                            {
                                "code": "30",
                                "system": "urn:oid:1.2.643.5.1.13.2.1.1.208:1.0",
                                "display": "Онкология"
                            }
                        ]
                    }
                ],
                "category": [
                    {
                        "coding": [
                            {
                                "code": "external",
                                "system": "http://miramedix.ru/fhir/CodeSystem/healthcareservice-category",
                                "display": "Внешняя"
                            }
                        ]
                    }
                ],
                "extraDetails": "Повторный приём — это повторное обращение к одному специалисту в течение 3-х месяцев с момента первичного обращения по одному и тому же случаю заболевания. Повторный приём врача включает в себя обсуждение и анализ изменения состояния, определение тактики дальнейшего лечения."
            }
        },
        {
            "request": {
                "method": "POST",
                "url": "HealthcareService"
            },
            "resource": {
                "resourceType": "HealthcareService",
                "id": "service-initial-appointment-radiologist",
                "name": "Прием радиолога (первичный)",
                "active": true,
                "specialty": [
                    {
                        "coding": [
                            {
                                "code": "42",
                                "system": "urn:oid:1.2.643.5.1.13.2.1.1.208:1.0",
                                "display": "Радиология"
                            }
                        ]
                    }
                ],
                "category": [
                    {
                        "coding": [
                            {
                                "code": "external",
                                "system": "http://miramedix.ru/fhir/CodeSystem/healthcareservice-category",
                                "display": "Внешняя"
                            }
                        ]
                    }
                ],
                "extraDetails": "Первичный консультативный приём врача-специалиста включает в себя оформление медицинской карты, сбор анамнеза, определение проблемы и (или) наличия заболевания, установление диагноза, определение способов и методов лечения, курса процедур, составление плана лечения, выдачу рекомендаций"
            }
        },
        {
            "request": {
                "method": "POST",
                "url": "HealthcareService"
            },
            "resource": {
                "resourceType": "HealthcareService",
                "id": "service-repeated-appointment-radiologist",
                "name": "Прием радиолога (повторный)",
                "active": true,
                "specialty": [
                    {
                        "coding": [
                            {
                                "code": "42",
                                "system": "urn:oid:1.2.643.5.1.13.2.1.1.208:1.0",
                                "display": "Радиология"
                            }
                        ]
                    }
                ],
                "category": [
                    {
                        "coding": [
                            {
                                "code": "external",
                                "system": "http://miramedix.ru/fhir/CodeSystem/healthcareservice-category",
                                "display": "Внешняя"
                            }
                        ]
                    }
                ],
                "extraDetails": "Повторный приём — это повторное обращение к одному специалисту в течение 3-х месяцев с момента первичного обращения по одному и тому же случаю заболевания. Повторный приём врача включает в себя обсуждение и анализ изменения состояния, определение тактики дальнейшего лечения."
            }
        },
        {
            "request": {
                "method": "POST",
                "url": "HealthcareService"
            },
            "resource": {
                "resourceType": "HealthcareService",
                "id": "service-initial-appointment-radiotherapist",
                "name": "Прием радиотерапевта (первичный)",
                "active": true,
                "specialty": [
                    {
                        "coding": [
                            {
                                "code": "42",
                                "system": "urn:oid:1.2.643.5.1.13.2.1.1.208:1.0",
                                "display": "Радиология"
                            }
                        ]
                    }
                ],
                "category": [
                    {
                        "coding": [
                            {
                                "code": "external",
                                "system": "http://miramedix.ru/fhir/CodeSystem/healthcareservice-category",
                                "display": "Внешняя"
                            }
                        ]
                    }
                ],
                "extraDetails": "Первичный консультативный приём врача-специалиста включает в себя оформление медицинской карты, сбор анамнеза, определение проблемы и (или) наличия заболевания, установление диагноза, определение способов и методов лечения, курса процедур, составление плана лечения, выдачу рекомендаций"
            }
        },
        {
            "request": {
                "method": "POST",
                "url": "HealthcareService"
            },
            "resource": {
                "resourceType": "HealthcareService",
                "id": "service-repeated-appointment-radiotherapist",
                "name": "Прием радиотерапевта (повторный)",
                "active": true,
                "specialty": [
                    {
                        "coding": [
                            {
                                "code": "42",
                                "system": "urn:oid:1.2.643.5.1.13.2.1.1.208:1.0",
                                "display": "Радиология"
                            }
                        ]
                    }
                ],
                "category": [
                    {
                        "coding": [
                            {
                                "code": "external",
                                "system": "http://miramedix.ru/fhir/CodeSystem/healthcareservice-category",
                                "display": "Внешняя"
                            }
                        ]
                    }
                ],
                "extraDetails": "Повторный приём — это повторное обращение к одному специалисту в течение 3-х месяцев с момента первичного обращения по одному и тому же случаю заболевания. Повторный приём врача включает в себя обсуждение и анализ изменения состояния, определение тактики дальнейшего лечения."
            }
        },
        {
            "request": {
                "method": "POST",
                "url": "HealthcareService"
            },
            "resource": {
                "resourceType": "HealthcareService",
                "id": "service-initial-appointment-rheumatologist",
                "name": "Прием ревматолога (первичный)",
                "active": true,
                "specialty": [
                    {
                        "coding": [
                            {
                                "code": "45",
                                "system": "urn:oid:1.2.643.5.1.13.2.1.1.208:1.0",
                                "display": "Ревматология"
                            }
                        ]
                    }
                ],
                "category": [
                    {
                        "coding": [
                            {
                                "code": "external",
                                "system": "http://miramedix.ru/fhir/CodeSystem/healthcareservice-category",
                                "display": "Внешняя"
                            }
                        ]
                    }
                ],
                "extraDetails": "Первичный консультативный приём врача-специалиста включает в себя оформление медицинской карты, сбор анамнеза, определение проблемы и (или) наличия заболевания, установление диагноза, определение способов и методов лечения, курса процедур, составление плана лечения, выдачу рекомендаций"
            }
        },
        {
            "request": {
                "method": "POST",
                "url": "HealthcareService"
            },
            "resource": {
                "resourceType": "HealthcareService",
                "id": "service-repeated-appointment-rheumatologist",
                "name": "Прием ревматолога (повторный)",
                "active": true,
                "specialty": [
                    {
                        "coding": [
                            {
                                "code": "45",
                                "system": "urn:oid:1.2.643.5.1.13.2.1.1.208:1.0",
                                "display": "Ревматология"
                            }
                        ]
                    }
                ],
                "category": [
                    {
                        "coding": [
                            {
                                "code": "external",
                                "system": "http://miramedix.ru/fhir/CodeSystem/healthcareservice-category",
                                "display": "Внешняя"
                            }
                        ]
                    }
                ],
                "extraDetails": "Повторный приём — это повторное обращение к одному специалисту в течение 3-х месяцев с момента первичного обращения по одному и тому же случаю заболевания. Повторный приём врача включает в себя обсуждение и анализ изменения состояния, определение тактики дальнейшего лечения."
            }
        },
        {
            "request": {
                "method": "POST",
                "url": "HealthcareService"
            },
            "resource": {
                "resourceType": "HealthcareService",
                "id": "service-initial-appointment-therapist",
                "name": "Прием терапевта (первичный)",
                "active": true,
                "specialty": [
                    {
                        "coding": [
                            {
                                "code": "52",
                                "system": "urn:oid:1.2.643.5.1.13.2.1.1.208:1.0",
                                "display": "Терапия"
                            }
                        ]
                    }
                ],
                "category": [
                    {
                        "coding": [
                            {
                                "code": "external",
                                "system": "http://miramedix.ru/fhir/CodeSystem/healthcareservice-category",
                                "display": "Внешняя"
                            }
                        ]
                    }
                ],
                "extraDetails": "Первичный консультативный приём врача-специалиста включает в себя оформление медицинской карты, сбор анамнеза, определение проблемы и (или) наличия заболевания, установление диагноза, определение способов и методов лечения, курса процедур, составление плана лечения, выдачу рекомендаций"
            }
        },
        {
            "request": {
                "method": "POST",
                "url": "HealthcareService"
            },
            "resource": {
                "resourceType": "HealthcareService",
                "id": "service-repeated-appointment-therapist",
                "name": "Прием терапевта (повторный)",
                "active": true,
                "specialty": [
                    {
                        "coding": [
                            {
                                "code": "52",
                                "system": "urn:oid:1.2.643.5.1.13.2.1.1.208:1.0",
                                "display": "Терапия"
                            }
                        ]
                    }
                ],
                "category": [
                    {
                        "coding": [
                            {
                                "code": "external",
                                "system": "http://miramedix.ru/fhir/CodeSystem/healthcareservice-category",
                                "display": "Внешняя"
                            }
                        ]
                    }
                ],
                "extraDetails": "Повторный приём — это повторное обращение к одному специалисту в течение 3-х месяцев с момента первичного обращения по одному и тому же случаю заболевания. Повторный приём врача включает в себя обсуждение и анализ изменения состояния, определение тактики дальнейшего лечения."
            }
        },
        {
            "request": {
                "method": "POST",
                "url": "HealthcareService"
            },
            "resource": {
                "resourceType": "HealthcareService",
                "id": "service-initial-appointment-surgeon",
                "name": "Прием хирурга (первичный)",
                "active": true,
                "specialty": [
                    {
                        "coding": [
                            {
                                "code": "61",
                                "system": "urn:oid:1.2.643.5.1.13.2.1.1.208:1.0",
                                "display": "Хирургия"
                            }
                        ]
                    }
                ],
                "category": [
                    {
                        "coding": [
                            {
                                "code": "external",
                                "system": "http://miramedix.ru/fhir/CodeSystem/healthcareservice-category",
                                "display": "Внешняя"
                            }
                        ]
                    }
                ],
                "extraDetails": "Первичный консультативный приём врача-специалиста включает в себя оформление медицинской карты, сбор анамнеза, определение проблемы и (или) наличия заболевания, установление диагноза, определение способов и методов лечения, курса процедур, составление плана лечения, выдачу рекомендаций"
            }
        },
        {
            "request": {
                "method": "POST",
                "url": "HealthcareService"
            },
            "resource": {
                "resourceType": "HealthcareService",
                "id": "service-repeated-appointment-surgeon",
                "name": "Прием хирурга (повторный)",
                "active": true,
                "specialty": [
                    {
                        "coding": [
                            {
                                "code": "61",
                                "system": "urn:oid:1.2.643.5.1.13.2.1.1.208:1.0",
                                "display": "Хирургия"
                            }
                        ]
                    }
                ],
                "category": [
                    {
                        "coding": [
                            {
                                "code": "external",
                                "system": "http://miramedix.ru/fhir/CodeSystem/healthcareservice-category",
                                "display": "Внешняя"
                            }
                        ]
                    }
                ],
                "extraDetails": "Повторный приём — это повторное обращение к одному специалисту в течение 3-х месяцев с момента первичного обращения по одному и тому же случаю заболевания. Повторный приём врача включает в себя обсуждение и анализ изменения состояния, определение тактики дальнейшего лечения."
            }
        },
        {
            "request": {
                "method": "POST",
                "url": "HealthcareService"
            },
            "resource": {
                "resourceType": "HealthcareService",
                "id": "service-rehabilitation",
                "name": "Реабилитация",
                "active": true,
                "category": [
                    {
                        "coding": [
                            {
                                "code": "external",
                                "system": "http://miramedix.ru/fhir/CodeSystem/healthcareservice-category",
                                "display": "Внешняя"
                            }
                        ]
                    }
                ],
                "extraDetails": "Наши реабилитологи разрабатывают индивидуальную программу восстановления для каждого пациента с учетом его заболевания, профессии и индивидуальных особенностей. Здесь созданы все условия для того, чтобы пациент чувствовал себя максимально комфортно"
            }
        },
        {
            "request": {
                "method": "POST",
                "url": "HealthcareService"
            },
            "resource": {
                "resourceType": "HealthcareService",
                "id": "service-scintigraphy",
                "name": "Сцинтиграфия",
                "active": true,
                "comment": "Перед началом сканирования пациенту вводится специально изготовленный радиофармацевтический препарат (РФП) на основе технеция-99m, обладающего свойством испускать гамма-излучение в течении непродолжительного периода времени, и дополнительного вещества, обладающего специфичной тропностью (повышенным накоплением) к исследуемым клеткам и тканям. После введения препарат постепенно распределяется по организму пациента с учетом его анатомических особенностей, преимущественно накапливаясь в диагностически необходимых органах и областях. Во время исследования ОФЭКТ/КТ-сканер фиксирует исходящее гамма-излучение, подвергает его программной обработке, совмещает со снимками последовательно проводимой рентгеновской компьютерной томографии и формирует набор изображений в пространственной проекции – «карту» накопления РФП. Благодаря этим данным можно с высокой вероятностью определить наличие заболевания, степень его выраженности, разработать необходимый план лечения и провести коррекцию объема хирургического вмешательства.",
                "category": [
                    {
                        "coding": [
                            {
                                "code": "external",
                                "system": "http://miramedix.ru/fhir/CodeSystem/healthcareservice-category",
                                "display": "Внешняя"
                            }
                        ]
                    }
                ],
                "extraDetails": "Однофотонная эмиссионная компьютерная томография, совмещенная с компьютерной томографией (ОФЭКТ/КТ) – современный гибридный метод исследования, позволяющий определить очаги распространения онкологических заболеваний, а также выявить структурные изменения и функциональные нарушения ряда систем организма. Сцинтиграфия имеет тот же принцип работы и проводится на том же оборудовании, что и ОФЭКТ/КТ, но результатом в этом случае будет снимок двумерной проекции – сцинтиграмма."
            }
        },
        {
            "request": {
                "method": "POST",
                "url": "HealthcareService"
            },
            "resource": {
                "resourceType": "HealthcareService",
                "id": "service-ultrasonography",
                "name": "Ультразвуковое исследование (УЗИ)",
                "active": true,
                "comment": "УЗИ необходимо в случаях:  * обеспечения безопасности проведения некоторых медицинских манипуляций;  * мониторинга развития внутриутробного плода;  * исследования объёмных образований кожи и подкожно-жировой клетчатки;  * а также во многих других случаях, когда врачу требуется провести более детальный осмотр пациента.    Принцип работы УЗИ — звуковая эхолокация: звуковые волны, проходя сквозь тело человека, по-разному отражаются от разных тканей организма. Эти различия позволяют судить о возможных изменениях в теле пациента и выявить причины его беспокойства и жалоб",
                "category": [
                    {
                        "coding": [
                            {
                                "code": "external",
                                "system": "http://miramedix.ru/fhir/CodeSystem/healthcareservice-category",
                                "display": "Внешняя"
                            }
                        ]
                    }
                ],
                "extraDetails": "Метод визуальной диагностики, который применяется для выявления функциональных изменений внутренних органов как извне так и изнутри (если это исследование полых органов). Применяется для исследования, практически, всех органов и систем человека"
            }
        },
        {
            "request": {
                "method": "POST",
                "url": "HealthcareService"
            },
            "resource": {
                "resourceType": "HealthcareService",
                "id": "service-chemoradiotherapy",
                "name": "Химиолучевая терапия",
                "active": true,
                "comment": "Лучевая терапия или «радиотерапия» наравне с лекарственным (химиотерапия) и хирургическим является одним из главных методов лечения пациентов с онкологическими заболеваниями и заключается в воздействии на опухоль ионизирующим излучением – радиацией.  Основным принципом действия лучевой терапии является губительное воздействие излучения на структуру ДНК быстро делящихся опухолевых клеток. В конечном итоге под воздействием облучения опухолевые клетки перестают делиться и гибнут, а сама опухоль постепенно разрушается",
                "category": [
                    {
                        "coding": [
                            {
                                "code": "external",
                                "system": "http://miramedix.ru/fhir/CodeSystem/healthcareservice-category",
                                "display": "Внешняя"
                            }
                        ]
                    }
                ],
                "extraDetails": "Во всех случаях основная цель лучевого воздействия – уничтожение опасной для организма опухолевой ткани. Помимо дистанционной лучевой терапии в нашем центре также применяется комбинированный подход с одновременным использованием лекарственной терапии – химиолучевая терапия"
            }
        },
        {
            "request": {
                "method": "POST",
                "url": "HealthcareService"
            },
            "resource": {
                "resourceType": "HealthcareService",
                "id": "service-chemotherapy",
                "name": "Химиотерапия",
                "active": true,
                "comment": "Помимо классических цитостатических препаратов, специалисты проводят гормональную, таргетную и иммунотерапию.  Схему химиотерапии онколог выбирает на основании вида заболевания, его молекулярно-биологических особенностей и его распространенности. Делается выбор в пользу того или иного режима химиотерапии на основании доказательной базы, обобщенной в клинических рекомендациях.  Перед началом лечения онколог подробно расскажет, что следует ожидать от назначенной схемы химиотерапии, и даст соответствующие рекомендации",
                "category": [
                    {
                        "coding": [
                            {
                                "code": "external",
                                "system": "http://miramedix.ru/fhir/CodeSystem/healthcareservice-category",
                                "display": "Внешняя"
                            }
                        ]
                    }
                ]
            }
        },
        {
            "request": {
                "method": "POST",
                "url": "HealthcareService"
            },
            "resource": {
                "resourceType": "HealthcareService",
                "id": "group-remote-consultations",
                "name": "Дистанционные онлайн консультации",
                "active": true,
                "category": [
                    {
                        "coding": [
                            {
                                "code": "external",
                                "system": "http://miramedix.ru/fhir/CodeSystem/healthcareservice-category",
                                "display": "Внешняя"
                            }
                        ]
                    }
                ]
            }
        },
        {
            "request": {
                "method": "POST",
                "url": "HealthcareService"
            },
            "resource": {
                "resourceType": "HealthcareService",
                "id": "group-oncology",
                "name": "Онкология",
                "active": true,
                "category": [
                    {
                        "coding": [
                            {
                                "code": "external",
                                "system": "http://miramedix.ru/fhir/CodeSystem/healthcareservice-category",
                                "display": "Внешняя"
                            }
                        ]
                    }
                ]
            }
        },
        {
            "request": {
                "method": "POST",
                "url": "HealthcareService"
            },
            "resource": {
                "resourceType": "HealthcareService",
                "id": "group-ct",
                "name": "Компьтерная томография (КТ)",
                "active": true,
                "category": [
                    {
                        "coding": [
                            {
                                "code": "external",
                                "system": "http://miramedix.ru/fhir/CodeSystem/healthcareservice-category",
                                "display": "Внешняя"
                            }
                        ]
                    }
                ]
            }
        },
        {
            "request": {
                "method": "POST",
                "url": "HealthcareService"
            },
            "resource": {
                "resourceType": "HealthcareService",
                "id": "group-mri",
                "name": "Магнитно-резонансная томография (МРТ)",
                "active": true,
                "category": [
                    {
                        "coding": [
                            {
                                "code": "external",
                                "system": "http://miramedix.ru/fhir/CodeSystem/healthcareservice-category",
                                "display": "Внешняя"
                            }
                        ]
                    }
                ]
            }
        },
        {
            "request": {
                "method": "POST",
                "url": "HealthcareService"
            },
            "resource": {
                "resourceType": "HealthcareService",
                "id": "group-pet-ct",
                "name": "Позитронная эмиссионная томография (ПЭТ-КТ)",
                "active": true,
                "category": [
                    {
                        "coding": [
                            {
                                "code": "external",
                                "system": "http://miramedix.ru/fhir/CodeSystem/healthcareservice-category",
                                "display": "Внешняя"
                            }
                        ]
                    }
                ]
            }
        },
        {
            "request": {
                "method": "POST",
                "url": "HealthcareService"
            },
            "resource": {
                "resourceType": "HealthcareService",
                "id": "group-scintigraphy",
                "name": "Сцинтиграфия",
                "active": true,
                "category": [
                    {
                        "coding": [
                            {
                                "code": "external",
                                "system": "http://miramedix.ru/fhir/CodeSystem/healthcareservice-category",
                                "display": "Внешняя"
                            }
                        ]
                    }
                ]
            }
        },
        {
            "request": {
                "method": "POST",
                "url": "HealthcareService"
            },
            "resource": {
                "resourceType": "HealthcareService",
                "id": "group-ultrasonography",
                "name": "Ультразвуковое исследование (УЗИ)",
                "active": true,
                "category": [
                    {
                        "coding": [
                            {
                                "code": "external",
                                "system": "http://miramedix.ru/fhir/CodeSystem/healthcareservice-category",
                                "display": "Внешняя"
                            }
                        ]
                    }
                ]
            }
        },
        {
            "request": {
                "method": "POST",
                "url": "HealthcareService"
            },
            "resource": {
                "resourceType": "HealthcareService",
                "id": "group-chemotherapy",
                "name": "Химиотерапия",
                "active": true,
                "category": [
                    {
                        "coding": [
                            {
                                "code": "external",
                                "system": "http://miramedix.ru/fhir/CodeSystem/healthcareservice-category",
                                "display": "Внешняя"
                            }
                        ]
                    }
                ]
            }
        },
        {
            "request": {
                "method": "POST",
                "url": "HealthcareService"
            },
            "resource": {
                "resourceType": "HealthcareService",
                "id": "group-chemoradiotherapy",
                "name": "Химиолучевая терапия",
                "active": true,
                "category": [
                    {
                        "coding": [
                            {
                                "code": "external",
                                "system": "http://miramedix.ru/fhir/CodeSystem/healthcareservice-category",
                                "display": "Внешняя"
                            }
                        ]
                    }
                ]
            }
        },
        {
            "request": {
                "method": "POST",
                "url": "HealthcareService"
            },
            "resource": {
                "resourceType": "HealthcareService",
                "id": "group-radiotherapy",
                "name": "Лучевая терапия",
                "active": true,
                "category": [
                    {
                        "coding": [
                            {
                                "code": "external",
                                "system": "http://miramedix.ru/fhir/CodeSystem/healthcareservice-category",
                                "display": "Внешняя"
                            }
                        ]
                    }
                ]
            }
        },
        {
            "request": {
                "method": "POST",
                "url": "HealthcareService"
            },
            "resource": {
                "resourceType": "HealthcareService",
                "id": "group-gamma-knife",
                "name": "Гамма-нож",
                "active": true,
                "category": [
                    {
                        "coding": [
                            {
                                "code": "external",
                                "system": "http://miramedix.ru/fhir/CodeSystem/healthcareservice-category",
                                "display": "Внешняя"
                            }
                        ]
                    }
                ]
            }
        },
        {
            "request": {
                "method": "POST",
                "url": "HealthcareService"
            },
            "resource": {
                "resourceType": "HealthcareService",
                "id": "group-cyberknife",
                "name": "Кибернож",
                "active": true,
                "category": [
                    {
                        "coding": [
                            {
                                "code": "external",
                                "system": "http://miramedix.ru/fhir/CodeSystem/healthcareservice-category",
                                "display": "Внешняя"
                            }
                        ]
                    }
                ]
            }
        },
        {
            "request": {
                "method": "POST",
                "url": "HealthcareService"
            },
            "resource": {
                "resourceType": "HealthcareService",
                "id": "group-brachytherapy",
                "name": "Брахитерапия",
                "active": true,
                "category": [
                    {
                        "coding": [
                            {
                                "code": "external",
                                "system": "http://miramedix.ru/fhir/CodeSystem/healthcareservice-category",
                                "display": "Внешняя"
                            }
                        ]
                    }
                ]
            }
        },
        {
            "request": {
                "method": "POST",
                "url": "HealthcareService"
            },
            "resource": {
                "resourceType": "HealthcareService",
                "id": "group-lab-tests",
                "name": "Лабораторные исследования",
                "active": true,
                "category": [
                    {
                        "coding": [
                            {
                                "code": "external",
                                "system": "http://miramedix.ru/fhir/CodeSystem/healthcareservice-category",
                                "display": "Внешняя"
                            }
                        ]
                    }
                ]
            }
        },
        {
            "request": {
                "method": "POST",
                "url": "HealthcareService"
            },
            "resource": {
                "resourceType": "HealthcareService",
                "id": "proup-programs-of-service",
                "name": "Программы обслуживания",
                "active": true,
                "category": [
                    {
                        "coding": [
                            {
                                "code": "external",
                                "system": "http://miramedix.ru/fhir/CodeSystem/healthcareservice-category",
                                "display": "Внешняя"
                            }
                        ]
                    }
                ]
            }
        },
        {
            "request": {
                "method": "POST",
                "url": "HealthcareService"
            },
            "resource": {
                "resourceType": "HealthcareService",
                "id": "proup-mammalogy",
                "name": "Маммология",
                "active": true,
                "category": [
                    {
                        "coding": [
                            {
                                "code": "external",
                                "system": "http://miramedix.ru/fhir/CodeSystem/healthcareservice-category",
                                "display": "Внешняя"
                            }
                        ]
                    }
                ]
            }
        },
        {
            "request": {
                "method": "POST",
                "url": "HealthcareService"
            },
            "resource": {
                "resourceType": "HealthcareService",
                "id": "group-neurosurgery",
                "name": "Нейрохирургия",
                "active": true,
                "category": [
                    {
                        "coding": [
                            {
                                "code": "external",
                                "system": "http://miramedix.ru/fhir/CodeSystem/healthcareservice-category",
                                "display": "Внешняя"
                            }
                        ]
                    }
                ]
            }
        },
        {
            "request": {
                "method": "POST",
                "url": "HealthcareService"
            },
            "resource": {
                "resourceType": "HealthcareService",
                "id": "group-neurology",
                "name": "Неврология",
                "active": true,
                "category": [
                    {
                        "coding": [
                            {
                                "code": "external",
                                "system": "http://miramedix.ru/fhir/CodeSystem/healthcareservice-category",
                                "display": "Внешняя"
                            }
                        ]
                    }
                ]
            }
        },
        {
            "request": {
                "method": "POST",
                "url": "HealthcareService"
            },
            "resource": {
                "resourceType": "HealthcareService",
                "id": "group-rheumatology",
                "name": "Ревматология",
                "active": true,
                "category": [
                    {
                        "coding": [
                            {
                                "code": "external",
                                "system": "http://miramedix.ru/fhir/CodeSystem/healthcareservice-category",
                                "display": "Внешняя"
                            }
                        ]
                    }
                ]
            }
        },
        {
            "request": {
                "method": "POST",
                "url": "HealthcareService"
            },
            "resource": {
                "resourceType": "HealthcareService",
                "id": "group-cardiology",
                "name": "Кардиология",
                "active": true,
                "category": [
                    {
                        "coding": [
                            {
                                "code": "external",
                                "system": "http://miramedix.ru/fhir/CodeSystem/healthcareservice-category",
                                "display": "Внешняя"
                            }
                        ]
                    }
                ]
            }
        },
        {
            "request": {
                "method": "POST",
                "url": "HealthcareService"
            },
            "resource": {
                "resourceType": "HealthcareService",
                "id": "group-surgery",
                "name": "Хирургия",
                "active": true,
                "category": [
                    {
                        "coding": [
                            {
                                "code": "external",
                                "system": "http://miramedix.ru/fhir/CodeSystem/healthcareservice-category",
                                "display": "Внешняя"
                            }
                        ]
                    }
                ]
            }
        },
        {
            "request": {
                "method": "POST",
                "url": "HealthcareService"
            },
            "resource": {
                "resourceType": "HealthcareService",
                "id": "group-dermatology",
                "name": "Дерматология",
                "active": true,
                "category": [
                    {
                        "coding": [
                            {
                                "code": "external",
                                "system": "http://miramedix.ru/fhir/CodeSystem/healthcareservice-category",
                                "display": "Внешняя"
                            }
                        ]
                    }
                ]
            }
        },
        {
            "request": {
                "method": "POST",
                "url": "HealthcareService"
            },
            "resource": {
                "resourceType": "HealthcareService",
                "id": "group-proctology",
                "name": "Проктология",
                "active": true,
                "category": [
                    {
                        "coding": [
                            {
                                "code": "external",
                                "system": "http://miramedix.ru/fhir/CodeSystem/healthcareservice-category",
                                "display": "Внешняя"
                            }
                        ]
                    }
                ]
            }
        },
        {
            "request": {
                "method": "POST",
                "url": "HealthcareService"
            },
            "resource": {
                "resourceType": "HealthcareService",
                "id": "group-urology",
                "name": "Урология",
                "active": true,
                "category": [
                    {
                        "coding": [
                            {
                                "code": "external",
                                "system": "http://miramedix.ru/fhir/CodeSystem/healthcareservice-category",
                                "display": "Внешняя"
                            }
                        ]
                    }
                ]
            }
        },
        {
            "request": {
                "method": "POST",
                "url": "HealthcareService"
            },
            "resource": {
                "resourceType": "HealthcareService",
                "id": "group-therapy",
                "name": "Терапия",
                "active": true,
                "category": [
                    {
                        "coding": [
                            {
                                "code": "external",
                                "system": "http://miramedix.ru/fhir/CodeSystem/healthcareservice-category",
                                "display": "Внешняя"
                            }
                        ]
                    }
                ]
            }
        },
        {
            "request": {
                "method": "POST",
                "url": "HealthcareService"
            },
            "resource": {
                "resourceType": "HealthcareService",
                "id": "group-home-health-care",
                "name": "Помощь на дому",
                "active": true,
                "category": [
                    {
                        "coding": [
                            {
                                "code": "external",
                                "system": "http://miramedix.ru/fhir/CodeSystem/healthcareservice-category",
                                "display": "Внешняя"
                            }
                        ]
                    }
                ]
            }
        },
        {
            "request": {
                "method": "POST",
                "url": "HealthcareService"
            },
            "resource": {
                "resourceType": "HealthcareService",
                "id": "group-traumatology-orthopedics",
                "name": "Травматология-ортопедия",
                "active": true,
                "category": [
                    {
                        "coding": [
                            {
                                "code": "external",
                                "system": "http://miramedix.ru/fhir/CodeSystem/healthcareservice-category",
                                "display": "Внешняя"
                            }
                        ]
                    }
                ]
            }
        },
        {
            "request": {
                "method": "POST",
                "url": "HealthcareService"
            },
            "resource": {
                "resourceType": "HealthcareService",
                "id": "group-gastroenterology",
                "name": "Гастроэнтерология",
                "active": true,
                "category": [
                    {
                        "coding": [
                            {
                                "code": "external",
                                "system": "http://miramedix.ru/fhir/CodeSystem/healthcareservice-category",
                                "display": "Внешняя"
                            }
                        ]
                    }
                ]
            }
        },
        {
            "request": {
                "method": "POST",
                "url": "HealthcareService"
            },
            "resource": {
                "resourceType": "HealthcareService",
                "id": "group-gynecology",
                "name": "Гинекология",
                "active": true,
                "category": [
                    {
                        "coding": [
                            {
                                "code": "external",
                                "system": "http://miramedix.ru/fhir/CodeSystem/healthcareservice-category",
                                "display": "Внешняя"
                            }
                        ]
                    }
                ]
            }
        },
        {
            "request": {
                "method": "POST",
                "url": "HealthcareService"
            },
            "resource": {
                "resourceType": "HealthcareService",
                "id": "group-diagnostics",
                "name": "Диагностика",
                "active": true,
                "category": [
                    {
                        "coding": [
                            {
                                "code": "external",
                                "system": "http://miramedix.ru/fhir/CodeSystem/healthcareservice-category",
                                "display": "Внешняя"
                            }
                        ]
                    }
                ]
            }
        },
        {
            "request": {
                "method": "POST",
                "url": "HealthcareService"
            },
            "resource": {
                "resourceType": "HealthcareService",
                "id": "group-rehabilitation",
                "name": "Реабилитация",
                "active": true,
                "category": [
                    {
                        "coding": [
                            {
                                "code": "external",
                                "system": "http://miramedix.ru/fhir/CodeSystem/healthcareservice-category",
                                "display": "Внешняя"
                            }
                        ]
                    }
                ]
            }
        }
    ]
}